// Jest Snapshot v1, https://goo.gl/fbAQLP

exports[`<Drawer> Should match snapshot 1`] = `
<WithStyles(ForwardRef(Drawer))
  anchor="left"
  className="makeStyles-drawer-1 makeStyles-drawer-6"
  classes={
    Object {
      "paper": "makeStyles-drawerPaper-2 makeStyles-drawerPaper-7",
    }
  }
  open={true}
  variant="persistent"
>
  <div
    className="makeStyles-drawerHeader-3"
  >
    <WithStyles(ForwardRef(Typography))
      noWrap={true}
      variant="h6"
    >
      Reddit Posts
    </WithStyles(ForwardRef(Typography))>
    <WithStyles(ForwardRef(Tooltip))
      title="Close Draw bar"
    >
      <WithStyles(ForwardRef(IconButton))
        color="inherit"
        data-testid="close"
        onClick={[MockFunction]}
      >
        <ChevronLeftIcon
          color="inherit"
        />
      </WithStyles(ForwardRef(IconButton))>
    </WithStyles(ForwardRef(Tooltip))>
  </div>
  <WithStyles(ForwardRef(Divider)) />
  <WithStyles(ForwardRef(List))
    disablePadding={true}
    id="posts-container"
  >
    <Post
      addPostToGallery={[Function]}
      changeSelectedPost={[Function]}
      key="heoglu"
      post={
        Object {
          "author": "Saltanian",
          "author_fullname": "t2_5zs7e5wn",
          "created": 1592979734,
          "created_utc": 1592950934,
          "id": "heoglu",
          "name": "t3_heoglu",
          "num_comments": 8708,
          "permalink": "/r/PublicFreakout/comments/heoglu/officers_didnt_bother_to_know_who_or_why_they/",
          "score": 116541,
          "subreddit_id": "t5_2yrq6",
          "thumbnail": "https://a.thumbs.redditmedia.com/7ndHIl37QgSomaj4NA1XSQfhYHhBeu5scekX_72Fci4.jpg",
          "thumbnail_height": 140,
          "thumbnail_width": 140,
          "title": "Officers didn't bother to know who or why they were arresting.",
          "total_awards_received": 18,
          "url": "https://v.redd.it/xyss1117jq651",
        }
      }
    />
    <Post
      addPostToGallery={[Function]}
      changeSelectedPost={[Function]}
      key="hekaho"
      post={
        Object {
          "author": "Bmchris44",
          "author_fullname": "t2_1nz2i2p",
          "created": 1592966437,
          "created_utc": 1592937637,
          "id": "hekaho",
          "name": "t3_hekaho",
          "num_comments": 1392,
          "permalink": "/r/BlackPeopleTwitter/comments/hekaho/im_actually_very_impressed_with_nascar/",
          "score": 107427,
          "subreddit_id": "t5_33x33",
          "thumbnail": "https://b.thumbs.redditmedia.com/gn4WUTbhjBSBV1zANVcmFqt2L8GbofCCBzFCMQzRyXM.jpg",
          "thumbnail_height": 97,
          "thumbnail_width": 140,
          "title": "I’m actually very impressed with NASCAR",
          "total_awards_received": 2,
          "url": "https://i.redd.it/hj7ug11vfp651.png",
        }
      }
    />
    <Post
      addPostToGallery={[Function]}
      changeSelectedPost={[Function]}
      key="hena77"
      post={
        Object {
          "author": "prince_of_gypsies",
          "author_fullname": "t2_15ns3l",
          "created": 1592975974,
          "created_utc": 1592947174,
          "id": "hena77",
          "name": "t3_hena77",
          "num_comments": 1676,
          "permalink": "/r/interestingasfuck/comments/hena77/the_true_scale_of_michelangelos_david/",
          "score": 103105,
          "subreddit_id": "t5_2qhsa",
          "thumbnail": "https://b.thumbs.redditmedia.com/rklDNMlf5Zqr2Wz72hsn1lVOdAavk1P0Il4Fph3P3SA.jpg",
          "thumbnail_height": 93,
          "thumbnail_width": 140,
          "title": "The true scale of Michelangelo's David",
          "total_awards_received": 1,
          "url": "https://i.redd.it/8ckahth98q651.jpg",
        }
      }
    />
    <Post
      addPostToGallery={[Function]}
      changeSelectedPost={[Function]}
      key="hemrel"
      post={
        Object {
          "author": "Careless_Negotiation",
          "author_fullname": "t2_3p7bg6xa",
          "created": 1592974282,
          "created_utc": 1592945482,
          "id": "hemrel",
          "name": "t3_hemrel",
          "num_comments": 1245,
          "permalink": "/r/BlackPeopleTwitter/comments/hemrel/cops_murdered_elijah_mcclain_over_literally/",
          "score": 98526,
          "subreddit_id": "t5_33x33",
          "thumbnail": "https://b.thumbs.redditmedia.com/mVgDiAEtaHSjulIKe0ceRGamFnq6u2Z4vwVOzyLMyEo.jpg",
          "thumbnail_height": 138,
          "thumbnail_width": 140,
          "title": "Cops murdered Elijah McClain over literally nothing, it was a modern day state-sanctioned lynching.",
          "total_awards_received": 18,
          "url": "https://i.redd.it/h9cddp633q651.png",
        }
      }
    />
    <Post
      addPostToGallery={[Function]}
      changeSelectedPost={[Function]}
      key="hekcqf"
      post={
        Object {
          "author": "MightyBlues",
          "author_fullname": "t2_bm1qb",
          "created": 1592966638,
          "created_utc": 1592937838,
          "id": "hekcqf",
          "name": "t3_hekcqf",
          "num_comments": 2528,
          "permalink": "/r/worldnews/comments/hekcqf/ontario_new_math_curriculum_to_introduce_coding/",
          "score": 97894,
          "subreddit_id": "t5_2qh13",
          "thumbnail": "default",
          "thumbnail_height": 78,
          "thumbnail_width": 140,
          "title": "Ontario new math curriculum to introduce coding, personal finance starting in Grade 1",
          "total_awards_received": 6,
          "url": "https://www.cp24.com/mobile/news/ontario-s-new-math-curriculum-to-introduce-coding-personal-finance-starting-in-grade-1-1.4995865",
        }
      }
    />
    <Post
      addPostToGallery={[Function]}
      changeSelectedPost={[Function]}
      key="heorrv"
      post={
        Object {
          "author": "d3333p7",
          "author_fullname": "t2_2xf0jofg",
          "created": 1592980736,
          "created_utc": 1592951936,
          "id": "heorrv",
          "name": "t3_heorrv",
          "num_comments": 1347,
          "permalink": "/r/nextfuckinglevel/comments/heorrv/what_a_throw/",
          "score": 96477,
          "subreddit_id": "t5_m0bnr",
          "thumbnail": "https://b.thumbs.redditmedia.com/YTHnwE_z9yhfTn0BQcVCuIzTGzvyrOzKGIHtGptZP2A.jpg",
          "thumbnail_height": 140,
          "thumbnail_width": 140,
          "title": "What a throw",
          "total_awards_received": 6,
          "url": "https://v.redd.it/18fmhm2emq651",
        }
      }
    />
    <Post
      addPostToGallery={[Function]}
      changeSelectedPost={[Function]}
      key="hendtx"
      post={
        Object {
          "author": "lmaosmh",
          "author_fullname": "t2_wd2zp",
          "created": 1592976310,
          "created_utc": 1592947510,
          "id": "hendtx",
          "name": "t3_hendtx",
          "num_comments": 1263,
          "permalink": "/r/MadeMeSmile/comments/hendtx/nba_player_giannis_antetokounmpos_wholesome/",
          "score": 95445,
          "subreddit_id": "t5_2uqcm",
          "thumbnail": "https://b.thumbs.redditmedia.com/m0UxnWgj-n8hKK6cMQEr-Pnf37A8OBRTGGAeA601TcU.jpg",
          "thumbnail_height": 140,
          "thumbnail_width": 140,
          "title": "NBA player Giannis Antetokounmpo's wholesome reaction to a young fan showing him some of her artwork",
          "total_awards_received": 11,
          "url": "https://v.redd.it/uwrz6mqz8q651",
        }
      }
    />
    <Post
      addPostToGallery={[Function]}
      changeSelectedPost={[Function]}
      key="heyb3m"
      post={
        Object {
          "author": "mrproffesor07",
          "author_fullname": "t2_2zufhw66",
          "created": 1593021377,
          "created_utc": 1592992577,
          "id": "heyb3m",
          "name": "t3_heyb3m",
          "num_comments": 1758,
          "permalink": "/r/nextfuckinglevel/comments/heyb3m/these_boys_make_and_break_the_system/",
          "score": 102741,
          "subreddit_id": "t5_m0bnr",
          "thumbnail": "https://b.thumbs.redditmedia.com/j157LTn4YOorJo3Yn7Y1PodmyeMh0puNdWlFh6BKD7k.jpg",
          "thumbnail_height": 140,
          "thumbnail_width": 140,
          "title": "These boys make and break the system",
          "total_awards_received": 3,
          "url": "https://i.redd.it/6i75546azt651.jpg",
        }
      }
    />
    <Post
      addPostToGallery={[Function]}
      changeSelectedPost={[Function]}
      key="het214"
      post={
        Object {
          "author": "tburns1469",
          "author_fullname": "t2_elmd2",
          "created": 1592996741,
          "created_utc": 1592967941,
          "id": "het214",
          "name": "t3_het214",
          "num_comments": 3430,
          "permalink": "/r/pics/comments/het214/a_trash_can_in_tulsa_ok/",
          "score": 92796,
          "subreddit_id": "t5_2qh0u",
          "thumbnail": "https://b.thumbs.redditmedia.com/QUG_hGDWPVd65af3gdJkquiB9O_66M7uSj4xxD8rM5Y.jpg",
          "thumbnail_height": 140,
          "thumbnail_width": 140,
          "title": "A trash can in Tulsa, OK.",
          "total_awards_received": 17,
          "url": "https://i.redd.it/28k95hy0yr651.jpg",
        }
      }
    />
    <Post
      addPostToGallery={[Function]}
      changeSelectedPost={[Function]}
      key="hetw4p"
      post={
        Object {
          "author": "Thund3rbolt",
          "author_fullname": "t2_7krxj",
          "created": 1593000229,
          "created_utc": 1592971429,
          "id": "hetw4p",
          "name": "t3_hetw4p",
          "num_comments": 2113,
          "permalink": "/r/interestingasfuck/comments/hetw4p/guy_makes_a_device_to_remove_colorado_beetles/",
          "score": 88411,
          "subreddit_id": "t5_2qhsa",
          "thumbnail": "https://b.thumbs.redditmedia.com/R8HRt9qGhq_VN3oSagpaOhqfVorMZyaKoDJE0ptDK0Q.jpg",
          "thumbnail_height": 140,
          "thumbnail_width": 140,
          "title": "Guy makes a device to remove colorado beetles from his crop",
          "total_awards_received": 4,
          "url": "https://gfycat.com/oddsomelabradorretriever",
        }
      }
    />
    <Post
      addPostToGallery={[Function]}
      changeSelectedPost={[Function]}
      key="her3bl"
      post={
        Object {
          "author": "Bart_Dart",
          "author_fullname": "t2_754oh",
          "created": 1592989048,
          "created_utc": 1592960248,
          "id": "her3bl",
          "name": "t3_her3bl",
          "num_comments": 531,
          "permalink": "/r/gifs/comments/her3bl/nba_reporter_caught_on_camera_facetiming_his/",
          "score": 88013,
          "subreddit_id": "t5_2qt55",
          "thumbnail": "https://b.thumbs.redditmedia.com/URp2eB8e5X5bl6FvjXRGL7LmU-_bOm290oiTkFKbfmM.jpg",
          "thumbnail_height": 140,
          "thumbnail_width": 140,
          "title": "NBA reporter caught on camera FaceTiming his child during a game",
          "total_awards_received": 1,
          "url": "https://i.imgur.com/rKOQDgj.gifv",
        }
      }
    />
    <Post
      addPostToGallery={[Function]}
      changeSelectedPost={[Function]}
      key="hekmoj"
      post={
        Object {
          "author": "FranCesljar",
          "author_fullname": "t2_4rmk5o54",
          "created": 1592967511,
          "created_utc": 1592938711,
          "id": "hekmoj",
          "name": "t3_hekmoj",
          "num_comments": 199,
          "permalink": "/r/memes/comments/hekmoj/hes_not_wrong_for_sure/",
          "score": 86817,
          "subreddit_id": "t5_2qjpg",
          "thumbnail": "https://a.thumbs.redditmedia.com/-IIBiREGsFMskt6rxe9Bw_lDHYaEcJvE0eq2265QOM4.jpg",
          "thumbnail_height": 140,
          "thumbnail_width": 140,
          "title": "He's not wrong for sure",
          "total_awards_received": 2,
          "url": "https://i.redd.it/lllak614jp651.jpg",
        }
      }
    />
    <Post
      addPostToGallery={[Function]}
      changeSelectedPost={[Function]}
      key="hesviy"
      post={
        Object {
          "author": "mdjunaid2495",
          "author_fullname": "t2_163o6m",
          "created": 1592996017,
          "created_utc": 1592967217,
          "id": "hesviy",
          "name": "t3_hesviy",
          "num_comments": 678,
          "permalink": "/r/funny/comments/hesviy/the_way_he_looks_back_at_them/",
          "score": 87483,
          "subreddit_id": "t5_2qh33",
          "thumbnail": "https://b.thumbs.redditmedia.com/WCLYJIceHewbBuBAIVskhxbo3QICoXynPPtmcSxYDok.jpg",
          "thumbnail_height": 140,
          "thumbnail_width": 140,
          "title": "The way he looks back at them",
          "total_awards_received": 5,
          "url": "https://v.redd.it/si7bucrsvr651",
        }
      }
    />
    <Post
      addPostToGallery={[Function]}
      changeSelectedPost={[Function]}
      key="hekfsm"
      post={
        Object {
          "author": "Miskatonica",
          "author_fullname": "t2_v51f9",
          "created": 1592966910,
          "created_utc": 1592938110,
          "id": "hekfsm",
          "name": "t3_hekfsm",
          "num_comments": 1728,
          "permalink": "/r/todayilearned/comments/hekfsm/til_a_12yrold_canadian_boy_was_caught_after/",
          "score": 80150,
          "subreddit_id": "t5_2qqjc",
          "thumbnail": "https://b.thumbs.redditmedia.com/7o7R4XE7Cl59_2Srz1NWSSlH9xqPNw-PziP7VQEZnSU.jpg",
          "thumbnail_height": 78,
          "thumbnail_width": 140,
          "title": "TIL a 12-yr-old Canadian boy was caught after hacking multiple sites in order to trade pirated information to the hacktivist group Anonymous for video games. His lawyer said the boy who had been hacking since age 9 was not politically motivated; he merely saw it as a challenge.",
          "total_awards_received": 1,
          "url": "https://www.theverge.com/2013/10/26/5031718/12-year-old-boy-admits-to-hacking-government-sites-for-anonymous",
        }
      }
    />
    <Post
      addPostToGallery={[Function]}
      changeSelectedPost={[Function]}
      key="hepvh0"
      post={
        Object {
          "author": "naravianana",
          "author_fullname": "t2_3s9j9vxy",
          "created": 1592984467,
          "created_utc": 1592955667,
          "id": "hepvh0",
          "name": "t3_hepvh0",
          "num_comments": 1019,
          "permalink": "/r/facepalm/comments/hepvh0/throwback_to_when_the_white_house_secretary/",
          "score": 80633,
          "subreddit_id": "t5_2r5rp",
          "thumbnail": "https://b.thumbs.redditmedia.com/Fql_UomoG-rQlLQRINLuyxDlVmF36aPSWjWk3XxIIzQ.jpg",
          "thumbnail_height": 77,
          "thumbnail_width": 140,
          "title": "Throwback to when the White House secretary posted his password publicly 2 days in a row.",
          "total_awards_received": 0,
          "url": "https://i.redd.it/ixzdid3jxq651.jpg",
        }
      }
    />
    <Post
      addPostToGallery={[Function]}
      changeSelectedPost={[Function]}
      key="henj8h"
      post={
        Object {
          "author": "insipidwanker",
          "author_fullname": "t2_2t3jylci",
          "created": 1592976779,
          "created_utc": 1592947979,
          "id": "henj8h",
          "name": "t3_henj8h",
          "num_comments": 10989,
          "permalink": "/r/news/comments/henj8h/fbi_video_evidence_shows_noose_found_in_garage_of/",
          "score": 78737,
          "subreddit_id": "t5_2qh3l",
          "thumbnail": "default",
          "thumbnail_height": 78,
          "thumbnail_width": 140,
          "title": "FBI: Video evidence shows noose found in garage of Bubba Wallace had been there since Oct. 2019",
          "total_awards_received": 35,
          "url": "https://www.wbrc.com/2020/06/22/noose-found-garage-area-nascar-driver-bubba-wallace/",
        }
      }
    />
    <Post
      addPostToGallery={[Function]}
      changeSelectedPost={[Function]}
      key="hemlk3"
      post={
        Object {
          "author": "Bmchris44",
          "author_fullname": "t2_1nz2i2p",
          "created": 1592973752,
          "created_utc": 1592944952,
          "id": "hemlk3",
          "name": "t3_hemlk3",
          "num_comments": 2445,
          "permalink": "/r/WhitePeopleTwitter/comments/hemlk3/a_true_christian_would_never_stand_for_the_way/",
          "score": 77820,
          "subreddit_id": "t5_35n7t",
          "thumbnail": "https://b.thumbs.redditmedia.com/4W6LxgR7cmwtN7E2qDu_oPcEymakTt6FASkkIvL7zHE.jpg",
          "thumbnail_height": 140,
          "thumbnail_width": 140,
          "title": "A true Christian would never stand for the way people are being treated",
          "total_awards_received": 4,
          "url": "https://i.redd.it/doayuf1n1q651.png",
        }
      }
    />
    <Post
      addPostToGallery={[Function]}
      changeSelectedPost={[Function]}
      key="hf06pa"
      post={
        Object {
          "author": "pwnizuka",
          "author_fullname": "t2_5ucq1",
          "created": 1593030686,
          "created_utc": 1593001886,
          "id": "hf06pa",
          "name": "t3_hf06pa",
          "num_comments": 1541,
          "permalink": "/r/pics/comments/hf06pa/stage_4_to_remission_in_18_months_cancer_is/",
          "score": 87141,
          "subreddit_id": "t5_2qh0u",
          "thumbnail": "https://b.thumbs.redditmedia.com/zFSw7FOKK9rIdmq_aGsl7VIxvXu0UAEdYy5-9dZOlYM.jpg",
          "thumbnail_height": 140,
          "thumbnail_width": 140,
          "title": "Stage 4 to remission in 18 months. Cancer is temporary, Wu Tang is forever.",
          "total_awards_received": 35,
          "url": "https://i.redd.it/nifu18fyqu651.jpg",
        }
      }
    />
    <Post
      addPostToGallery={[Function]}
      changeSelectedPost={[Function]}
      key="hf0ea3"
      post={
        Object {
          "author": "WeTheIndecent",
          "author_fullname": "t2_134z7k",
          "created": 1593031597,
          "created_utc": 1593002797,
          "id": "hf0ea3",
          "name": "t3_hf0ea3",
          "num_comments": 2817,
          "permalink": "/r/funny/comments/hf0ea3/he_did_say_please/",
          "score": 103201,
          "subreddit_id": "t5_2qh33",
          "thumbnail": "https://b.thumbs.redditmedia.com/rxmuAKSjQTc2Gio0jum0mbZmXqYi4LVaD7sPaPMJK4E.jpg",
          "thumbnail_height": 140,
          "thumbnail_width": 140,
          "title": "He did say please",
          "total_awards_received": 2,
          "url": "https://i.redd.it/rtl8sncntu651.jpg",
        }
      }
    />
    <Post
      addPostToGallery={[Function]}
      changeSelectedPost={[Function]}
      key="heyjcj"
      post={
        Object {
          "author": "theremarkableamoeba",
          "author_fullname": "t2_53vsdady",
          "created": 1593022605,
          "created_utc": 1592993805,
          "id": "heyjcj",
          "name": "t3_heyjcj",
          "num_comments": 1993,
          "permalink": "/r/todayilearned/comments/heyjcj/til_that_the_firm_cantor_fitzgerald_lost_658/",
          "score": 85544,
          "subreddit_id": "t5_2qqjc",
          "thumbnail": "default",
          "thumbnail_height": null,
          "thumbnail_width": 140,
          "title": "TIL that the firm Cantor Fitzgerald lost 658 employees on 9/11. The CEO, who was taking his child to school that day, later distributed $180 million to the families and offered jobs to all children of the victims. 57 of those children were employed by Cantor Fitzgerald as of 2016.",
          "total_awards_received": 4,
          "url": "https://www.ny1.com/nyc/all-boroughs/wtc/2016/09/10/after-losing-more-than-600-employees-on-9-11--cantor-fitzgerald-maintains-commitment-to-help-victims--families",
        }
      }
    />
    <Post
      addPostToGallery={[Function]}
      changeSelectedPost={[Function]}
      key="heudol"
      post={
        Object {
          "author": "Daniel_Toben",
          "author_fullname": "t2_3e8mjb3f",
          "created": 1593002294,
          "created_utc": 1592973494,
          "id": "heudol",
          "name": "t3_heudol",
          "num_comments": 1056,
          "permalink": "/r/pics/comments/heudol/ive_officially_cleaned_up_7000_trash_bags_of/",
          "score": 74032,
          "subreddit_id": "t5_2qh0u",
          "thumbnail": "https://b.thumbs.redditmedia.com/g8orlctj4GWofn6Ec2EhkLPzj637Z8-aS_ttgvkAt4c.jpg",
          "thumbnail_height": 140,
          "thumbnail_width": 140,
          "title": "I’ve officially cleaned up 7000 trash bags of litter in my lifetime.",
          "total_awards_received": 40,
          "url": "https://i.redd.it/2qvqs63jes651.jpg",
        }
      }
    />
    <Post
      addPostToGallery={[Function]}
      changeSelectedPost={[Function]}
      key="heuohi"
      post={
        Object {
          "author": "quickcure",
          "author_fullname": "t2_6aacz7aq",
          "created": 1593003683,
          "created_utc": 1592974883,
          "id": "heuohi",
          "name": "t3_heuohi",
          "num_comments": 994,
          "permalink": "/r/cursedcomments/comments/heuohi/cursed_hand/",
          "score": 74027,
          "subreddit_id": "t5_hw1ju",
          "thumbnail": "https://b.thumbs.redditmedia.com/0Yuiw_xFe_fCiCoNQteLs_QOGwjQ0x2NqedDV-FVxlM.jpg",
          "thumbnail_height": 140,
          "thumbnail_width": 140,
          "title": "cursed_hand?",
          "total_awards_received": 0,
          "url": "https://i.redd.it/ya5xve7ois651.jpg",
        }
      }
    />
    <Post
      addPostToGallery={[Function]}
      changeSelectedPost={[Function]}
      key="hes1gk"
      post={
        Object {
          "author": "Kelly240361",
          "author_fullname": "t2_4tczhro6",
          "created": 1592992749,
          "created_utc": 1592963949,
          "id": "hes1gk",
          "name": "t3_hes1gk",
          "num_comments": 1596,
          "permalink": "/r/WhitePeopleTwitter/comments/hes1gk/weve_become_desensitised/",
          "score": 71970,
          "subreddit_id": "t5_35n7t",
          "thumbnail": "https://b.thumbs.redditmedia.com/lKG4n5Eo-IuEg4hDFL7SUApBdA72GdPCHKFqBuDfkns.jpg",
          "thumbnail_height": 102,
          "thumbnail_width": 140,
          "title": "We’ve become desensitised",
          "total_awards_received": 1,
          "url": "https://i.imgur.com/n5CrHY0.jpg",
        }
      }
    />
    <Post
      addPostToGallery={[Function]}
      changeSelectedPost={[Function]}
      key="hepr4r"
      post={
        Object {
          "author": "finemenyak",
          "author_fullname": "t2_zwonr",
          "created": 1592984012,
          "created_utc": 1592955212,
          "id": "hepr4r",
          "name": "t3_hepr4r",
          "num_comments": 2352,
          "permalink": "/r/interestingasfuck/comments/hepr4r/vials_of_heroin_fentanyl_and_carfentanil_side_by/",
          "score": 69819,
          "subreddit_id": "t5_2qhsa",
          "thumbnail": "https://b.thumbs.redditmedia.com/yHqQgrbfrxnadpFbZqcyjW4VzEQavUd3wTKBqaLo4lM.jpg",
          "thumbnail_height": 115,
          "thumbnail_width": 140,
          "title": "Vials Of Heroin, Fentanyl, And Carfentanil Side By Side, Each Containing A Lethal Dose Of The Drug.",
          "total_awards_received": 5,
          "url": "https://i.redd.it/9buewze1wq651.jpg",
        }
      }
    />
    <Post
      addPostToGallery={[Function]}
      changeSelectedPost={[Function]}
      key="het1l1"
      post={
        Object {
          "author": "Somali_Pir8",
          "author_fullname": "t2_4m4na",
          "created": 1592996691,
          "created_utc": 1592967891,
          "id": "het1l1",
          "name": "t3_het1l1",
          "num_comments": 3717,
          "permalink": "/r/politics/comments/het1l1/aoc_defeats_primary_challenger_michelle/",
          "score": 67595,
          "subreddit_id": "t5_2cneq",
          "thumbnail": "https://b.thumbs.redditmedia.com/m57djtho3Dai06XqUZFrkzpb50Vyh6Wrmarf6aMxTiU.jpg",
          "thumbnail_height": 93,
          "thumbnail_width": 140,
          "title": "AOC defeats primary challenger Michelle Caruso-Cabrera",
          "total_awards_received": 10,
          "url": "https://www.axios.com/aoc-primary-challenger-michelle-caruso-cabrera-8b2ed6c1-3aaf-4fdf-ab8c-4d33b3e1b1b6.html?utm_source=twitter&amp;utm_medium=social&amp;utm_campaign=onhrs",
        }
      }
    />
  </WithStyles(ForwardRef(List))>
  <Loading
    className="makeStyles-buttonLoading-5"
  >
    <WithStyles(ForwardRef(Button))
      className="makeStyles-buttonAction-4"
      color="primary"
      id="btn-get-posts"
      variant="outlined"
    >
      Load More
    </WithStyles(ForwardRef(Button))>
  </Loading>
</WithStyles(ForwardRef(Drawer))>
`;
