// Jest Snapshot v1, https://goo.gl/fbAQLP

exports[`<App> Should match snapshot 1`] = `
<div
  className="makeStyles-root-1"
>
  <h1
    className="MuiTypography-root makeStyles-header-2 MuiTypography-h1"
  >
    Reddit Client
  </h1>
  <a
    className="makeStyles-link-3"
    href="/app"
    onClick={[Function]}
  >
    <h4
      className="MuiTypography-root makeStyles-header-2 MuiTypography-h4"
    >
      Go to app
    </h4>
  </a>
</div>
`;
